[gd_scene load_steps=7 format=2]

[ext_resource path="res://tiles.tres" type="TileSet" id=1]
[ext_resource path="res://objects/Camera.gd" type="Script" id=2]
[ext_resource path="res://objects/Map.gd" type="Script" id=3]
[ext_resource path="res://objects/enemies/Alien.tscn" type="PackedScene" id=4]
[ext_resource path="res://levels/Level.gd" type="Script" id=5]
[ext_resource path="res://objects/Player.tscn" type="PackedScene" id=6]

[node name="0" type="Node2D"]
script = ExtResource( 5 )
next_level = "res://levels/base/1.tscn"

[node name="Walls" type="TileMap" parent="."]
z_index = 1
tile_set = ExtResource( 1 )
cell_size = Vector2( 32, 32 )
cell_y_sort = true
cell_clip_uv = true
format = 1
tile_data = PoolIntArray( 0, 1, 0, 1, 1, 0, 2, 1, 0, 3, 4, 0, 4, 4, 0, 5, 1, 0, 6, 1, 0, 7, 1, 0, 8, 4, 0, 9, 4, 0, 10, 1, 0, 11, 1, 0, 12, 1, 0, 13, 4, 0, 14, 4, 0, 15, 1, 0, 16, 1, 0, 17, 1, 0, 18, 4, 0, 19, 4, 0, 20, 1, 0, 21, 1, 0, 22, 1, 0, 23, 4, 0, 24, 4, 0, 25, 1, 0, 26, 1, 0, 27, 1, 0, 28, 4, 0, 29, 4, 0, 30, 1, 0, 31, 1, 0, 32, 1, 0, 33, 4, 0, 34, 4, 0, 35, 1, 0, 36, 1, 0, 37, 1, 0, 65536, 1, 0, 65573, 1, 0, 131072, 1, 0, 131109, 4, 0, 196608, 4, 0, 196645, 4, 0, 262144, 4, 0, 262181, 4, 0, 327680, 1, 0, 327693, 1, 0, 327694, 1, 0, 327695, 1, 0, 327696, 4, 0, 327697, 4, 0, 327698, 4, 0, 327699, 4, 0, 327700, 4, 0, 327701, 1, 0, 327702, 1, 0, 327703, 1, 0, 327717, 1, 0, 393216, 1, 0, 393229, 1, 0, 393239, 1, 0, 393240, 1, 0, 393241, 1, 0, 393242, 4, 0, 393243, 4, 0, 393244, 1, 0, 393245, 1, 0, 393246, 4, 0, 393247, 4, 0, 393248, 1, 0, 393249, 1, 0, 393250, 4, 0, 393251, 4, 0, 393252, 1, 0, 393253, 1, 0, 458752, 1, 0, 458765, 4, 0, 458775, 1, 0, 458789, 1, 0, 524288, 4, 0, 524301, 4, 0, 524311, 1, 0, 524325, 4, 0, 589824, 4, 0, 589837, 4, 0, 589847, 1, 0, 589861, 4, 0, 655360, 1, 0, 655373, 4, 0, 655383, 1, 0, 655397, 1, 0, 720896, 1, 0, 720909, 4, 0, 720933, 1, 0, 786432, 1, 0, 786445, 1, 0, 786469, 1, 0, 851968, 4, 0, 851981, 1, 0, 851982, 1, 0, 851983, 1, 0, 851984, 1, 0, 851985, 1, 0, 851986, 1, 0, 851987, 1, 0, 851988, 1, 0, 851989, 1, 0, 851990, 1, 0, 851991, 1, 0, 852005, 4, 0, 917504, 4, 0, 917527, 1, 0, 917541, 4, 0, 983040, 1, 0, 983042, 1, 0, 983043, 1, 0, 983044, 1, 0, 983045, 1, 0, 983046, 1, 0, 983047, 1, 0, 983048, 1, 0, 983049, 1, 0, 983050, 1, 0, 983051, 1, 0, 983063, 4, 0, 983077, 1, 0, 1048576, 1, 0, 1048578, 1, 0, 1048587, 1, 0, 1048599, 4, 0, 1048613, 1, 0, 1114112, 1, 0, 1114114, 4, 0, 1114123, 1, 0, 1114135, 4, 0, 1114149, 1, 0, 1179648, 4, 0, 1179650, 4, 0, 1179659, 1, 0, 1179660, 1, 0, 1179671, 1, 0, 1179685, 4, 0, 1245184, 4, 0, 1245186, 4, 0, 1245197, 1, 0, 1245198, 1, 0, 1245199, 1, 0, 1245200, 1, 0, 1245201, 1, 0, 1245202, 1, 0, 1245203, 1, 0, 1245204, 1, 0, 1245205, 1, 0, 1245206, 1, 0, 1245221, 4, 0, 1310720, 1, 0, 1310722, 1, 0, 1310757, 1, 0, 1376256, 1, 0, 1376258, 1, 0, 1376259, 1, 0, 1376260, 1, 0, 1376261, 1, 0, 1376262, 1, 0, 1376263, 1, 0, 1376264, 1, 0, 1376265, 1, 0, 1376266, 1, 0, 1376267, 1, 0, 1376280, 1, 0, 1376281, 1, 0, 1376282, 4, 0, 1376283, 4, 0, 1376284, 1, 0, 1376285, 1, 0, 1376286, 4, 0, 1376287, 4, 0, 1376288, 1, 0, 1376289, 1, 0, 1376290, 4, 0, 1376291, 4, 0, 1376292, 1, 0, 1376293, 1, 0, 1441792, 1, 0, 1441803, 1, 0, 1441815, 1, 0, 1441829, 1, 0, 1507328, 4, 0, 1507339, 4, 0, 1507351, 4, 0, 1507365, 4, 0, 1572864, 4, 0, 1572875, 4, 0, 1572887, 4, 0, 1572901, 4, 0, 1638400, 1, 0, 1638411, 1, 0, 1638423, 1, 0, 1638437, 1, 0, 1703936, 1, 0, 1703937, 1, 0, 1703938, 1, 0, 1703939, 1, 0, 1703940, 1, 0, 1703941, 1, 0, 1703942, 1, 0, 1703943, 1, 0, 1703944, 1, 0, 1703945, 1, 0, 1703946, 1, 0, 1703947, 1, 0, 1703959, 1, 0, 1703973, 1, 0, 1769472, 1, 0, 1769483, 1, 0, 1769495, 4, 0, 1769509, 1, 0, 1835008, 1, 0, 1835019, 4, 0, 1835031, 4, 0, 1835045, 4, 0, 1900544, 1, 0, 1900555, 4, 0, 1900567, 1, 0, 1900581, 4, 0, 1966080, 1, 0, 1966091, 4, 0, 1966103, 1, 0, 1966117, 1, 0, 2031616, 1, 0, 2031627, 4, 0, 2031639, 4, 0, 2031653, 1, 0, 2097152, 1, 0, 2097163, 4, 0, 2097175, 4, 0, 2097189, 1, 0, 2162688, 1, 0, 2162699, 4, 0, 2162711, 1, 0, 2162725, 4, 0, 2228224, 1, 0, 2228235, 4, 0, 2228261, 4, 0, 2293760, 1, 0, 2293771, 1, 0, 2293797, 1, 0, 2359296, 1, 0, 2359297, 1, 0, 2359298, 1, 0, 2359299, 1, 0, 2359300, 1, 0, 2359301, 1, 0, 2359302, 1, 0, 2359303, 1, 0, 2359304, 1, 0, 2359305, 1, 0, 2359306, 1, 0, 2359307, 1, 0, 2359308, 1, 0, 2359309, 4, 0, 2359310, 4, 0, 2359311, 1, 0, 2359312, 1, 0, 2359313, 1, 0, 2359314, 4, 0, 2359315, 4, 0, 2359316, 1, 0, 2359317, 1, 0, 2359318, 1, 0, 2359319, 4, 0, 2359320, 4, 0, 2359321, 1, 0, 2359322, 1, 0, 2359323, 1, 0, 2359324, 4, 0, 2359325, 4, 0, 2359326, 1, 0, 2359327, 1, 0, 2359328, 1, 0, 2359329, 4, 0, 2359330, 4, 0, 2359331, 1, 0, 2359332, 1, 0, 2359333, 1, 0 )
script = ExtResource( 3 )

[node name="Player" parent="." instance=ExtResource( 6 )]
position = Vector2( 192, 1024 )

[node name="Camera" type="Camera2D" parent="."]
position = Vector2( 192, 1024 )
current = true
zoom = Vector2( 0.75, 0.75 )
limit_left = 0
limit_top = 0
limit_right = 1216
limit_bottom = 1184
script = ExtResource( 2 )

[node name="Enemy" parent="." instance=ExtResource( 4 )]
position = Vector2( 564, 152 )

[node name="Enemy2" parent="." instance=ExtResource( 4 )]
position = Vector2( 418, 159 )

[node name="Enemy3" parent="." instance=ExtResource( 4 )]
position = Vector2( 1106, 290 )

[node name="Enemy4" parent="." instance=ExtResource( 4 )]
position = Vector2( 184, 308 )

[node name="Enemy5" parent="." instance=ExtResource( 4 )]
position = Vector2( 88, 314 )

[node name="Enemy6" parent="." instance=ExtResource( 4 )]
position = Vector2( 308, 322 )

[node name="Enemy7" parent="." instance=ExtResource( 4 )]
position = Vector2( 565, 355 )

[node name="Enemy8" parent="." instance=ExtResource( 4 )]
position = Vector2( 1040, 459 )

[node name="Enemy9" parent="." instance=ExtResource( 4 )]
position = Vector2( 1160, 478 )

[node name="Enemy10" parent="." instance=ExtResource( 4 )]
position = Vector2( 546, 527 )

[node name="Enemy11" parent="." instance=ExtResource( 4 )]
position = Vector2( 463, 562 )

[node name="Enemy12" parent="." instance=ExtResource( 4 )]
position = Vector2( 1089, 565 )

[node name="Enemy13" parent="." instance=ExtResource( 4 )]
position = Vector2( 108, 794 )

[node name="Enemy14" parent="." instance=ExtResource( 4 )]
position = Vector2( 247, 794 )

[node name="Enemy15" parent="." instance=ExtResource( 4 )]
position = Vector2( 302, 810 )

[node name="Enemy16" parent="." instance=ExtResource( 4 )]
position = Vector2( 189, 814 )

[node name="Enemy17" parent="." instance=ExtResource( 4 )]
position = Vector2( 999, 849 )

[node name="Enemy18" parent="." instance=ExtResource( 4 )]
position = Vector2( 822, 862 )

[node name="Enemy19" parent="." instance=ExtResource( 4 )]
position = Vector2( 922, 936 )

[node name="Enemy20" parent="." instance=ExtResource( 4 )]
position = Vector2( 833, 1013 )

[node name="Enemy21" parent="." instance=ExtResource( 4 )]
position = Vector2( 1011, 1026 )
