[gd_scene load_steps=7 format=2]

[ext_resource path="res://objects/enemies/Alien.tscn" type="PackedScene" id=1]
[ext_resource path="res://objects/Player.tscn" type="PackedScene" id=2]
[ext_resource path="res://tiles.tres" type="TileSet" id=3]
[ext_resource path="res://levels/Level.gd" type="Script" id=4]
[ext_resource path="res://objects/Camera.gd" type="Script" id=5]
[ext_resource path="res://objects/Map.gd" type="Script" id=6]

[node name="3" type="Node2D"]
z_index = 1
script = ExtResource( 4 )
next_level = "res://levels/base/4.tscn"

[node name="Walls" type="TileMap" parent="."]
tile_set = ExtResource( 3 )
cell_size = Vector2( 32, 32 )
cell_y_sort = true
cell_clip_uv = true
format = 1
tile_data = PoolIntArray( 0, 1, 0, 1, 1, 0, 2, 1, 0, 3, 1, 0, 4, 1, 0, 5, 1, 0, 6, 4, 0, 7, 4, 0, 8, 1, 0, 9, 4, 0, 10, 4, 0, 11, 1, 0, 12, 1, 0, 13, 1, 0, 14, 4, 0, 15, 4, 0, 16, 1, 0, 17, 4, 0, 18, 4, 0, 19, 1, 0, 20, 1, 0, 21, 1, 0, 22, 4, 0, 23, 4, 0, 24, 1, 0, 25, 4, 0, 26, 4, 0, 27, 1, 0, 28, 1, 0, 29, 1, 0, 30, 4, 0, 31, 4, 0, 32, 4, 0, 33, 4, 0, 34, 4, 0, 35, 4, 0, 36, 1, 0, 37, 1, 0, 65536, 4, 0, 65540, 1, 0, 65548, 1, 0, 65556, 1, 0, 65564, 1, 0, 65573, 1, 0, 131072, 4, 0, 131074, 3, 0, 131076, 1, 0, 131084, 1, 0, 131092, 1, 0, 131100, 1, 0, 131109, 4, 0, 196608, 4, 0, 196612, 1, 0, 196620, 4, 0, 196628, 4, 0, 196636, 4, 0, 196645, 4, 0, 262144, 4, 0, 262148, 1, 0, 262156, 4, 0, 262164, 4, 0, 262172, 4, 0, 262181, 4, 0, 327680, 4, 0, 327684, 4, 0, 327692, 4, 0, 327700, 4, 0, 327708, 4, 0, 327717, 4, 0, 393216, 4, 0, 393220, 4, 0, 393228, 1, 0, 393236, 1, 0, 393244, 1, 0, 393253, 4, 0, 458752, 4, 0, 458756, 4, 0, 458764, 1, 0, 458772, 1, 0, 458780, 1, 0, 458789, 1, 0, 524288, 1, 0, 524289, 1, 0, 524290, 1, 0, 524291, 1, 0, 524292, 1, 0, 524293, 1, 0, 524294, 1, 0, 524295, 1, 0, 524296, 1, 0, 524297, 1, 0, 524298, 1, 0, 524299, 1, 0, 524300, 1, 0, 524301, 1, 0, 524302, 1, 0, 524303, 1, 0, 524304, 1, 0, 524305, 1, 0, 524306, 1, 0, 524307, 1, 0, 524308, 1, 0, 524309, 1, 0, 524310, 1, 0, 524311, 1, 0, 524312, 1, 0, 524313, 1, 0, 524314, 1, 0, 524315, 1, 0, 524316, 1, 0, 524317, 1, 0, 524318, 1, 0, 524319, 4, 0, 524320, 4, 0, 524321, 4, 0, 524322, 4, 0, 524323, 1, 0, 524324, 1, 0, 524325, 1, 0, 589824, 1, 0, 589852, 1, 0, 589861, 1, 0, 655360, 4, 0, 655388, 4, 0, 655397, 4, 0, 720896, 1, 0, 720924, 4, 0, 720933, 4, 0, 786432, 1, 0, 786433, 1, 0, 786434, 1, 0, 786435, 4, 0, 786436, 4, 0, 786437, 4, 0, 786438, 4, 0, 786439, 4, 0, 786440, 4, 0, 786441, 4, 0, 786442, 4, 0, 786443, 4, 0, 786444, 4, 0, 786445, 4, 0, 786446, 4, 0, 786447, 4, 0, 786448, 4, 0, 786449, 4, 0, 786450, 1, 0, 786451, 1, 0, 786452, 1, 0, 786453, 4, 0, 786454, 4, 0, 786455, 1, 0, 786456, 1, 0, 786460, 1, 0, 786469, 1, 0, 851968, 1, 0, 851992, 1, 0, 851996, 4, 0, 852005, 4, 0, 917504, 4, 0, 917528, 4, 0, 917532, 4, 0, 917541, 4, 0, 983040, 1, 0, 983064, 4, 0, 983068, 1, 0, 983077, 1, 0, 1048576, 1, 0, 1048577, 1, 0, 1048578, 1, 0, 1048579, 4, 0, 1048580, 4, 0, 1048581, 4, 0, 1048582, 4, 0, 1048583, 4, 0, 1048584, 4, 0, 1048585, 4, 0, 1048586, 4, 0, 1048587, 4, 0, 1048588, 4, 0, 1048589, 4, 0, 1048590, 4, 0, 1048591, 4, 0, 1048592, 4, 0, 1048593, 4, 0, 1048594, 1, 0, 1048595, 1, 0, 1048596, 1, 0, 1048600, 1, 0, 1048604, 1, 0, 1048605, 1, 0, 1048606, 1, 0, 1048607, 4, 0, 1048608, 4, 0, 1048609, 4, 0, 1048610, 4, 0, 1048611, 1, 0, 1048612, 1, 0, 1048613, 1, 0, 1114112, 1, 0, 1114132, 1, 0, 1114136, 1, 0, 1114140, 1, 0, 1114149, 1, 0, 1179648, 4, 0, 1179668, 4, 0, 1179672, 4, 0, 1179676, 4, 0, 1179685, 4, 0, 1245184, 1, 0, 1245204, 4, 0, 1245208, 4, 0, 1245212, 4, 0, 1245221, 4, 0, 1310720, 1, 0, 1310721, 1, 0, 1310722, 1, 0, 1310723, 1, 0, 1310724, 1, 0, 1310725, 1, 0, 1310726, 1, 0, 1310727, 1, 0, 1310728, 1, 0, 1310729, 1, 0, 1310730, 1, 0, 1310731, 1, 0, 1310732, 1, 0, 1310733, 1, 0, 1310734, 1, 0, 1310735, 1, 0, 1310736, 1, 0, 1310740, 4, 0, 1310744, 4, 0, 1310748, 1, 0, 1310757, 1, 0, 1376256, 1, 0, 1376272, 1, 0, 1376276, 4, 0, 1376280, 4, 0, 1376284, 4, 0, 1376293, 4, 0, 1441792, 4, 0, 1441808, 1, 0, 1441812, 1, 0, 1441816, 1, 0, 1441820, 4, 0, 1441829, 4, 0, 1507328, 1, 0, 1507344, 1, 0, 1507348, 1, 0, 1507352, 1, 0, 1507356, 1, 0, 1507365, 1, 0, 1572864, 1, 0, 1572865, 1, 0, 1572866, 1, 0, 1572867, 1, 0, 1572868, 1, 0, 1572869, 1, 0, 1572870, 1, 0, 1572871, 1, 0, 1572872, 1, 0, 1572873, 1, 0, 1572874, 1, 0, 1572875, 1, 0, 1572876, 1, 0, 1572880, 1, 0, 1572884, 4, 0, 1572888, 4, 0, 1572892, 1, 0, 1572893, 1, 0, 1572894, 1, 0, 1572895, 4, 0, 1572896, 4, 0, 1572897, 4, 0, 1572898, 4, 0, 1572899, 1, 0, 1572900, 1, 0, 1572901, 1, 0, 1638400, 1, 0, 1638412, 1, 0, 1638416, 1, 0, 1638420, 4, 0, 1638424, 4, 0, 1638428, 1, 0, 1638437, 1, 0, 1703936, 4, 0, 1703948, 1, 0, 1703952, 1, 0, 1703956, 4, 0, 1703960, 4, 0, 1703964, 4, 0, 1703973, 4, 0, 1769472, 1, 0, 1769484, 1, 0, 1769488, 1, 0, 1769492, 4, 0, 1769496, 4, 0, 1769500, 4, 0, 1769509, 4, 0, 1835008, 1, 0, 1835009, 1, 0, 1835010, 4, 0, 1835011, 1, 0, 1835012, 4, 0, 1835013, 1, 0, 1835014, 4, 0, 1835015, 1, 0, 1835016, 1, 0, 1835020, 1, 0, 1835024, 1, 0, 1835028, 1, 0, 1835032, 1, 0, 1835036, 1, 0, 1835045, 1, 0, 1900544, 1, 0, 1900552, 1, 0, 1900556, 1, 0, 1900560, 1, 0, 1900564, 1, 0, 1900568, 1, 0, 1900572, 4, 0, 1900581, 4, 0, 1966080, 4, 0, 1966088, 4, 0, 1966092, 1, 0, 1966096, 1, 0, 1966100, 4, 0, 1966104, 4, 0, 1966108, 4, 0, 1966117, 4, 0, 2031616, 1, 0, 2031624, 1, 0, 2031628, 1, 0, 2031632, 1, 0, 2031636, 4, 0, 2031640, 4, 0, 2031644, 1, 0, 2031653, 1, 0, 2097152, 4, 0, 2097160, 4, 0, 2097164, 1, 0, 2097168, 1, 0, 2097172, 4, 0, 2097176, 4, 0, 2097180, 1, 0, 2097181, 1, 0, 2097182, 1, 0, 2097183, 4, 0, 2097184, 4, 0, 2097185, 4, 0, 2097186, 4, 0, 2097187, 1, 0, 2097188, 1, 0, 2097189, 1, 0, 2162688, 1, 0, 2162696, 1, 0, 2162700, 1, 0, 2162704, 1, 0, 2162708, 4, 0, 2162712, 4, 0, 2162716, 1, 0, 2162724, 3, 0, 2162725, 1, 0, 2228224, 4, 0, 2228232, 4, 0, 2228236, 1, 0, 2228240, 1, 0, 2228244, 1, 0, 2228248, 1, 0, 2228252, 4, 0, 2228261, 4, 0, 2293760, 1, 0, 2293768, 1, 0, 2293772, 1, 0, 2293776, 1, 0, 2293780, 1, 0, 2293784, 1, 0, 2293788, 1, 0, 2293797, 1, 0, 2359296, 1, 0, 2359297, 1, 0, 2359298, 4, 0, 2359299, 1, 0, 2359300, 4, 0, 2359301, 1, 0, 2359302, 4, 0, 2359303, 1, 0, 2359304, 1, 0, 2359305, 1, 0, 2359306, 4, 0, 2359307, 1, 0, 2359308, 1, 0, 2359309, 1, 0, 2359310, 4, 0, 2359311, 1, 0, 2359312, 1, 0, 2359313, 1, 0, 2359314, 4, 0, 2359315, 1, 0, 2359316, 1, 0, 2359317, 1, 0, 2359318, 4, 0, 2359319, 1, 0, 2359320, 1, 0, 2359321, 1, 0, 2359322, 4, 0, 2359323, 1, 0, 2359324, 1, 0, 2359325, 1, 0, 2359326, 1, 0, 2359327, 4, 0, 2359328, 4, 0, 2359329, 4, 0, 2359330, 4, 0, 2359331, 1, 0, 2359332, 1, 0, 2359333, 1, 0 )
script = ExtResource( 6 )

[node name="Player" parent="." instance=ExtResource( 2 )]
position = Vector2( 216, 1000 )

[node name="Camera" type="Camera2D" parent="."]
position = Vector2( 216, 1000 )
current = true
zoom = Vector2( 0.75, 0.75 )
limit_left = 0
limit_top = 0
limit_right = 1216
limit_bottom = 1184
script = ExtResource( 5 )

[node name="Enemy" parent="." instance=ExtResource( 1 )]
position = Vector2( 1121.29, 105.356 )

[node name="Enemy2" parent="." instance=ExtResource( 1 )]
position = Vector2( 850.102, 113.831 )

[node name="Enemy3" parent="." instance=ExtResource( 1 )]
position = Vector2( 712.814, 117.22 )

[node name="Enemy4" parent="." instance=ExtResource( 1 )]
position = Vector2( 194.169, 120.61 )

[node name="Enemy5" parent="." instance=ExtResource( 1 )]
position = Vector2( 322.983, 120.61 )

[node name="Enemy6" parent="." instance=ExtResource( 1 )]
position = Vector2( 990.78, 122.305 )

[node name="Enemy7" parent="." instance=ExtResource( 1 )]
position = Vector2( 456.881, 124 )

[node name="Enemy8" parent="." instance=ExtResource( 1 )]
position = Vector2( 592.475, 124 )

[node name="Enemy9" parent="." instance=ExtResource( 1 )]
position = Vector2( 1133.15, 191.797 )

[node name="Enemy10" parent="." instance=ExtResource( 1 )]
position = Vector2( 834.847, 357.898 )

[node name="Enemy11" parent="." instance=ExtResource( 1 )]
position = Vector2( 260.271, 359.593 )

[node name="Enemy12" parent="." instance=ExtResource( 1 )]
position = Vector2( 451.797, 361.288 )

[node name="Enemy13" parent="." instance=ExtResource( 1 )]
position = Vector2( 643.322, 361.288 )

[node name="Enemy14" parent="." instance=ExtResource( 1 )]
position = Vector2( 68.7458, 362.983 )

[node name="Enemy15" parent="." instance=ExtResource( 1 )]
position = Vector2( 1133.15, 381.627 )

[node name="Enemy16" parent="." instance=ExtResource( 1 )]
position = Vector2( 1133.15, 473.153 )

[node name="Enemy17" parent="." instance=ExtResource( 1 )]
position = Vector2( 55.1864, 491.797 )

[node name="Enemy18" parent="." instance=ExtResource( 1 )]
position = Vector2( 709.424, 495.186 )

[node name="Enemy19" parent="." instance=ExtResource( 1 )]
position = Vector2( 834.847, 559.593 )

[node name="Enemy20" parent="." instance=ExtResource( 1 )]
position = Vector2( 50.1017, 610.441 )

[node name="Enemy21" parent="." instance=ExtResource( 1 )]
position = Vector2( 1134.85, 629.085 )

[node name="Enemy22" parent="." instance=ExtResource( 1 )]
position = Vector2( 578.915, 630.78 )

[node name="Enemy23" parent="." instance=ExtResource( 1 )]
position = Vector2( 1139.93, 735.864 )

[node name="Enemy24" parent="." instance=ExtResource( 1 )]
position = Vector2( 834.847, 742.644 )

[node name="Enemy25" parent="." instance=ExtResource( 1 )]
position = Vector2( 448.407, 742.644 )

[node name="Enemy26" parent="." instance=ExtResource( 1 )]
position = Vector2( 60.2712, 744.339 )

[node name="Enemy27" parent="." instance=ExtResource( 1 )]
position = Vector2( 60.2712, 861.288 )

[node name="Enemy28" parent="." instance=ExtResource( 1 )]
position = Vector2( 311.119, 868.068 )

[node name="Enemy29" parent="." instance=ExtResource( 1 )]
position = Vector2( 1136.54, 874.847 )

[node name="Enemy30" parent="." instance=ExtResource( 1 )]
position = Vector2( 834.847, 944.339 )

[node name="Enemy31" parent="." instance=ExtResource( 1 )]
position = Vector2( 1136.54, 990.102 )

[node name="Enemy35" parent="." instance=ExtResource( 1 )]
position = Vector2( 319.593, 1118.92 )

[node name="Enemy36" parent="." instance=ExtResource( 1 )]
position = Vector2( 458.576, 1124 )

[node name="Enemy37" parent="." instance=ExtResource( 1 )]
position = Vector2( 828.068, 1125.69 )

[node name="Enemy38" parent="." instance=ExtResource( 1 )]
position = Vector2( 1141.63, 1127.39 )

[node name="Enemy39" parent="." instance=ExtResource( 1 )]
position = Vector2( 711.119, 1142.64 )

[node name="Enemy40" parent="." instance=ExtResource( 1 )]
position = Vector2( 578.915, 1142.64 )
