[gd_scene load_steps=8 format=2]

[ext_resource path="res://tiles.tres" type="TileSet" id=1]
[ext_resource path="res://objects/Player.tscn" type="PackedScene" id=2]
[ext_resource path="res://objects/Camera.gd" type="Script" id=3]
[ext_resource path="res://objects/Map.gd" type="Script" id=4]
[ext_resource path="res://objects/enemies/StrongEnemy.tscn" type="PackedScene" id=5]
[ext_resource path="res://objects/enemies/Alien.tscn" type="PackedScene" id=6]
[ext_resource path="res://levels/Level.gd" type="Script" id=7]

[node name="8" type="Node2D"]
script = ExtResource( 7 )
next_level = "res://levels/base/8.tscn"

[node name="TileMap" type="TileMap" parent="."]
z_index = 1
tile_set = ExtResource( 1 )
cell_size = Vector2( 32, 32 )
format = 1
tile_data = PoolIntArray( 0, 1, 0, 1, 1, 0, 2, 4, 0, 3, 4, 0, 4, 4, 0, 5, 1, 0, 6, 1, 0, 7, 1, 0, 8, 4, 0, 9, 4, 0, 10, 4, 0, 11, 4, 0, 12, 4, 0, 13, 4, 0, 14, 4, 0, 15, 4, 0, 16, 4, 0, 17, 1, 0, 18, 1, 0, 19, 1, 0, 20, 4, 0, 21, 4, 0, 22, 4, 0, 23, 4, 0, 24, 4, 0, 25, 1, 0, 26, 1, 0, 27, 1, 0, 28, 4, 0, 29, 4, 0, 30, 4, 0, 31, 4, 0, 32, 4, 0, 33, 1, 0, 34, 1, 0, 35, 1, 0, 36, 4, 0, 37, 4, 0, 38, 4, 0, 39, 4, 0, 40, 4, 0, 41, 1, 0, 42, 1, 0, 43, 1, 0, 44, 1, 0, 45, 1, 0, 46, 1, 0, 65536, 1, 0, 65537, 3, 0, 65542, 1, 0, 65554, 4, 0, 65582, 1, 0, 131072, 4, 0, 131078, 4, 0, 131090, 4, 0, 131118, 4, 0, 196608, 4, 0, 196614, 4, 0, 196626, 1, 0, 196654, 4, 0, 262144, 4, 0, 262150, 4, 0, 262162, 1, 0, 262190, 4, 0, 327680, 1, 0, 327686, 1, 0, 327698, 4, 0, 327726, 1, 0, 393216, 1, 0, 393217, 1, 0, 393218, 4, 0, 393219, 4, 0, 393220, 4, 0, 393221, 1, 0, 393222, 1, 0, 393234, 4, 0, 393262, 1, 0, 458752, 1, 0, 458759, 1, 0, 458770, 1, 0, 458798, 1, 0, 524288, 4, 0, 524296, 1, 0, 524306, 1, 0, 524334, 4, 0, 589824, 4, 0, 589833, 1, 0, 589842, 4, 0, 589870, 4, 0, 655360, 4, 0, 655370, 1, 0, 655378, 4, 0, 655406, 4, 0, 720896, 1, 0, 720907, 1, 0, 720914, 1, 0, 720942, 1, 0, 786432, 1, 0, 786444, 1, 0, 786450, 1, 0, 786478, 1, 0, 851968, 1, 0, 851981, 1, 0, 851986, 4, 0, 852014, 1, 0, 917504, 4, 0, 917518, 1, 0, 917522, 4, 0, 917550, 4, 0, 983040, 4, 0, 983055, 1, 0, 983058, 1, 0, 983086, 4, 0, 1048576, 4, 0, 1048594, 1, 0, 1048622, 4, 0, 1114112, 1, 0, 1114130, 1, 0, 1114131, 1, 0, 1114132, 1, 0, 1114133, 4, 0, 1114134, 4, 0, 1114135, 1, 0, 1114136, 1, 0, 1114137, 1, 0, 1114138, 4, 0, 1114139, 4, 0, 1114140, 1, 0, 1114141, 1, 0, 1114142, 1, 0, 1114143, 4, 0, 1114144, 4, 0, 1114145, 1, 0, 1114146, 1, 0, 1114147, 1, 0, 1114158, 1, 0, 1179648, 1, 0, 1179649, 1, 0, 1179650, 1, 0, 1179651, 1, 0, 1179652, 1, 0, 1179653, 1, 0, 1179654, 1, 0, 1179655, 1, 0, 1179656, 1, 0, 1179657, 1, 0, 1179658, 1, 0, 1179659, 1, 0, 1179660, 4, 0, 1179661, 4, 0, 1179662, 1, 0, 1179663, 1, 0, 1179683, 1, 0, 1179694, 1, 0, 1245184, 1, 0, 1245194, 1, 0, 1245199, 1, 0, 1245219, 4, 0, 1245230, 1, 0, 1310720, 4, 0, 1310730, 4, 0, 1310735, 1, 0, 1310755, 4, 0, 1310766, 4, 0, 1376256, 4, 0, 1376266, 4, 0, 1376271, 1, 0, 1376291, 1, 0, 1376302, 4, 0, 1441792, 4, 0, 1441802, 1, 0, 1441807, 1, 0, 1441827, 1, 0, 1441838, 4, 0, 1507328, 1, 0, 1507338, 1, 0, 1507343, 1, 0, 1507363, 1, 0, 1507374, 1, 0, 1572864, 1, 0, 1572874, 4, 0, 1572879, 1, 0, 1572899, 1, 0, 1572910, 1, 0, 1638400, 1, 0, 1638410, 4, 0, 1638415, 1, 0, 1638435, 4, 0, 1638446, 1, 0, 1703936, 4, 0, 1703946, 1, 0, 1703951, 1, 0, 1703971, 4, 0, 1703982, 4, 0, 1769472, 4, 0, 1769482, 1, 0, 1769487, 1, 0, 1769505, 3, 0, 1769507, 1, 0, 1769518, 4, 0, 1835008, 4, 0, 1835018, 4, 0, 1835023, 1, 0, 1835024, 1, 0, 1835025, 1, 0, 1835026, 4, 0, 1835027, 4, 0, 1835028, 1, 0, 1835029, 1, 0, 1835030, 1, 0, 1835031, 4, 0, 1835032, 4, 0, 1835033, 1, 0, 1835034, 1, 0, 1835035, 1, 0, 1835036, 4, 0, 1835037, 4, 0, 1835038, 1, 0, 1835039, 1, 0, 1835040, 1, 0, 1835041, 4, 0, 1835042, 4, 0, 1835043, 1, 0, 1835054, 4, 0, 1900544, 1, 0, 1900554, 4, 0, 1900590, 1, 0, 1966080, 1, 0, 1966090, 1, 0, 1966126, 1, 0, 2031616, 1, 0, 2031617, 1, 0, 2031618, 4, 0, 2031619, 4, 0, 2031620, 4, 0, 2031621, 4, 0, 2031622, 4, 0, 2031623, 4, 0, 2031624, 4, 0, 2031625, 1, 0, 2031626, 1, 0, 2031627, 1, 0, 2031628, 4, 0, 2031629, 4, 0, 2031630, 1, 0, 2031631, 1, 0, 2031632, 4, 0, 2031633, 4, 0, 2031634, 1, 0, 2031635, 1, 0, 2031636, 4, 0, 2031637, 4, 0, 2031638, 1, 0, 2031639, 1, 0, 2031640, 4, 0, 2031641, 4, 0, 2031642, 1, 0, 2031643, 1, 0, 2031644, 4, 0, 2031645, 4, 0, 2031646, 1, 0, 2031647, 1, 0, 2031648, 4, 0, 2031649, 4, 0, 2031650, 1, 0, 2031651, 1, 0, 2031652, 4, 0, 2031653, 4, 0, 2031654, 1, 0, 2031655, 1, 0, 2031656, 4, 0, 2031657, 4, 0, 2031658, 1, 0, 2031659, 1, 0, 2031660, 4, 0, 2031661, 4, 0, 2031662, 1, 0 )
script = ExtResource( 4 )

[node name="Player" parent="." instance=ExtResource( 2 )]
position = Vector2( 160, 152 )

[node name="Camera" type="Camera2D" parent="."]
position = Vector2( 160, 152 )
current = true
zoom = Vector2( 0.75, 0.75 )
limit_left = 0
limit_top = 0
limit_right = 1504
limit_bottom = 1024
script = ExtResource( 3 )

[node name="StrongEnemy" parent="." instance=ExtResource( 5 )]
position = Vector2( 528, 384 )

[node name="StrongEnemy2" parent="." instance=ExtResource( 5 )]
position = Vector2( 1376, 280 )

[node name="StrongEnemy3" parent="." instance=ExtResource( 5 )]
position = Vector2( 1304, 208 )

[node name="StrongEnemy4" parent="." instance=ExtResource( 5 )]
position = Vector2( 1392, 128 )

[node name="BigBoi" parent="." instance=ExtResource( 5 )]
position = Vector2( 192, 832 )
scale = Vector2( 2, 2 )

[node name="Enemy" parent="." instance=ExtResource( 6 )]
position = Vector2( 320, 488 )

[node name="Foo" parent="." instance=ExtResource( 6 )]
position = Vector2( 384, 688 )

[node name="Bar" parent="." instance=ExtResource( 6 )]
position = Vector2( 448, 688 )

[node name="SomlLad" parent="." instance=ExtResource( 6 )]
position = Vector2( 64, 704 )
scale = Vector2( 0.5, 0.5 )

[node name="Enemy2" parent="." instance=ExtResource( 6 )]
position = Vector2( 192, 448 )

[node name="Enemy3" parent="." instance=ExtResource( 6 )]
position = Vector2( 128, 384 )

[node name="Enemy4" parent="." instance=ExtResource( 6 )]
position = Vector2( 320, 152 )

[node name="The Gang" type="Node" parent="."]

[node name="Mike" parent="The Gang" instance=ExtResource( 5 )]
position = Vector2( 1016, 824 )

[node name="Samuel" parent="The Gang" instance=ExtResource( 5 )]
position = Vector2( 904, 760 )

[node name="Bob" parent="The Gang" instance=ExtResource( 5 )]
position = Vector2( 928, 856 )

[node name="Alice" parent="The Gang" instance=ExtResource( 5 )]
position = Vector2( 1000, 712 )

[node name="Dumb, Dumber and Dumbest" type="Node" parent="."]

[node name="Idiot" parent="Dumb, Dumber and Dumbest" instance=ExtResource( 6 )]
position = Vector2( 728, 160 )
rotation = -3.14159

[node name="Moe" parent="Dumb, Dumber and Dumbest" instance=ExtResource( 6 )]
position = Vector2( 680, 160 )

[node name="Barry" parent="Dumb, Dumber and Dumbest" instance=ExtResource( 6 )]
position = Vector2( 776, 160 )
