[gd_resource type="Theme" load_steps=5 format=2]

[ext_resource path="res://fonts/DejaVuSans.ttf" type="DynamicFontData" id=1]

[sub_resource type="StyleBoxFlat" id=6]
bg_color = Color( 1, 0, 0, 1 )

[sub_resource type="StyleBoxFlat" id=7]
bg_color = Color( 0, 1, 0, 1 )

[sub_resource type="DynamicFont" id=5]
size = 12
font_data = ExtResource( 1 )

[resource]
default_font = SubResource( 5 )
ProgressBar/styles/bg = SubResource( 6 )
ProgressBar/styles/fg = SubResource( 7 )
