[gd_scene load_steps=2 format=2]

[ext_resource path="res://images/background.png" type="Texture" id=1]

[node name="Background" type="Sprite"]
z_index = -4096
texture = ExtResource( 1 )
region_enabled = true
region_rect = Rect2( 0, 0, 4096, 4096 )
