[gd_scene load_steps=5 format=2]

[ext_resource path="res://objects/Bullet.gd" type="Script" id=1]
[ext_resource path="res://images/energyball.png" type="Texture" id=2]
[ext_resource path="res://sounds/bubaproducer_laser-shot-silenced.ogg" type="AudioStream" id=3]

[sub_resource type="RectangleShape2D" id=1]
extents = Vector2( 4, 10 )

[node name="Bullet" type="KinematicBody2D" groups=["Bullets"]]
script = ExtResource( 1 )

[node name="Sprite" type="Sprite" parent="."]
texture = ExtResource( 2 )

[node name="Area" type="Area2D" parent="."]

[node name="CollisionShape" type="CollisionShape2D" parent="Area"]
scale = Vector2( 0.8, 1.6 )
shape = SubResource( 1 )

[node name="Sound" type="AudioStreamPlayer2D" parent="."]
stream = ExtResource( 3 )
autoplay = true

[connection signal="area_entered" from="Area" to="." method="_on_area_entered"]
[connection signal="body_entered" from="Area" to="." method="_on_body_entered"]
