[gd_scene load_steps=5 format=2]

[ext_resource path="res://images/firstaid.png" type="Texture" id=1]
[ext_resource path="res://objects/Healthkit.gd" type="Script" id=2]
[ext_resource path="res://sounds/rdaly95_collecting-health.ogg" type="AudioStream" id=3]

[sub_resource type="RectangleShape2D" id=1]
extents = Vector2( 16, 12 )

[node name="Healthkit" type="Sprite"]
z_index = -1
texture = ExtResource( 1 )
centered = false
script = ExtResource( 2 )

[node name="Area" type="Area2D" parent="."]

[node name="CollisionShape" type="CollisionShape2D" parent="Area"]
position = Vector2( 16, 14 )
shape = SubResource( 1 )

[node name="Collect" type="AudioStreamPlayer" parent="."]
stream = ExtResource( 3 )

[connection signal="body_entered" from="Area" to="." method="_on_body_entered"]
