[gd_scene load_steps=6 format=2]

[ext_resource path="res://objects/Camera.gd" type="Script" id=1]
[ext_resource path="res://objects/Player.tscn" type="PackedScene" id=2]
[ext_resource path="res://tiles.tres" type="TileSet" id=3]
[ext_resource path="res://objects/Map.gd" type="Script" id=4]
[ext_resource path="res://levels/Level.gd" type="Script" id=5]

[node name="LevelBase" type="Node2D"]
script = ExtResource( 5 )

[node name="Map" type="TileMap" parent="."]
tile_set = ExtResource( 3 )
cell_size = Vector2( 32, 32 )
format = 1
script = ExtResource( 4 )

[node name="Player" parent="." instance=ExtResource( 2 )]

[node name="Camera" type="Camera2D" parent="."]
current = true
zoom = Vector2( 0.75, 0.75 )
drag_margin_h_enabled = true
drag_margin_v_enabled = true
smoothing_enabled = true
smoothing_speed = 8.0
drag_margin_left = 0.1
drag_margin_top = 0.1
drag_margin_right = 0.1
drag_margin_bottom = 0.1
script = ExtResource( 1 )
