[gd_scene load_steps=5 format=2]

[ext_resource path="res://objects/enemies/Enemy.gd" type="Script" id=1]
[ext_resource path="res://sounds/alien-die.ogg" type="AudioStream" id=2]
[ext_resource path="res://images/mod_enemybase.png" type="Texture" id=3]

[sub_resource type="RectangleShape2D" id=1]
extents = Vector2( 16, 20 )

[node name="Enemy" type="KinematicBody2D" groups=["Enemies"]]
script = ExtResource( 1 )

[node name="Hitbox" type="Area2D" parent="."]
scale = Vector2( 1.15, 1.15 )

[node name="CollisionShape" type="CollisionShape2D" parent="Hitbox"]
shape = SubResource( 1 )

[node name="CollisionShape" type="CollisionPolygon2D" parent="."]
position = Vector2( 0, 2 )
polygon = PoolVector2Array( 16, 24, -16, 24, -16, -24, 16, -24 )

[node name="Sprite" type="Sprite" parent="CollisionShape"]
texture = ExtResource( 3 )

[node name="DeathSound" type="AudioStreamPlayer2D" parent="."]
position = Vector2( 0, -16 )
stream = ExtResource( 2 )

[node name="VisibilityEnabler" type="VisibilityEnabler2D" parent="."]
rect = Rect2( -16, -24, 32, 48 )
